[
    {
        "id": 1,
        "name": "Product 1",
        "price": 10.00
    },
    {
        "id": 2,
        "name": "Product 2",
        "price": 20.00
    },
    {
        "id": 3,
        "name": "Product 3",
        "price": 30.00
    },
    {
        "id": 4,
        "name": "Product 4",
        "price": 40.00
    }
]